%YAML 1.1
%TAG !u! tag:unity3d.com,2011:
--- !u!114 &11400000
MonoBehaviour:
  m_ObjectHideFlags: 0
  m_PrefabParentObject: {fileID: 0}
  m_PrefabInternal: {fileID: 0}
  m_GameObject: {fileID: 0}
  m_Enabled: 1
  m_EditorHideFlags: 0
  m_Script: {fileID: 11500000, guid: 6a38a071a5cc6e84189cedd0aabe9e1f, type: 3}
  m_Name: Monero Node
  m_EditorClassIdentifier: 
  _domain: localhost
  _port: 18082
  _user: monero
  _pass: S3KGU41HXVRZzf21bhZoEQ==
