%YAML 1.1
%TAG !u! tag:unity3d.com,2011:
--- !u!114 &11400000
MonoBehaviour:
  m_ObjectHideFlags: 0
  m_PrefabParentObject: {fileID: 0}
  m_PrefabInternal: {fileID: 0}
  m_GameObject: {fileID: 0}
  m_Enabled: 1
  m_EditorHideFlags: 0
  m_Script: {fileID: 11500000, guid: 9b2cf07432574fd47b1f26265e435355, type: 3}
  m_Name: Wallet Monero
  m_EditorClassIdentifier: 
  _walletAddress: 44LsdXwV2r6f5PExjaojLMLe5VMqF9nE8UhDsNSimfKvfK71nrkhDSHc8JQBDL3mZNfgcPq7BFXiNdnkFbPqZHboAvyTbNT
